Label,# Samples,Average,Min,Max,Std. Dev.,Error %,Throughput,Received KB/sec,Sent KB/sec,Avg. Bytes
3 /GTSGIAG3,150,16110,553,44686,7742.06,0.000%,3.24401,2.23,1.38,705.0
2 /GTSGIAG3,150,20349,2785,50529,6758.25,0.000%,2.31517,1.59,0.99,705.0
Bloquear Nomina,150,36459,3395,64010,11535.96,0.000%,2.28571,3.15,1.95,1410.0
5 /,279,86130,13812,217818,69692.82,41.219%,1.11409,8.75,1.73,8044.3
8 /,147,22664,3417,36968,4257.27,2.041%,1.62533,3.61,0.67,2273.6
7 /,133,23739,3364,47570,10688.61,16.541%,1.30878,2.93,0.46,2294.9
4 /,130,18173,3122,47259,13799.31,20.000%,1.33728,3.01,0.45,2306.7
6 /,130,16397,6028,47583,8918.09,9.231%,1.37370,3.07,0.53,2286.7
9 /GTSGIAG3,130,17856,7677,48701,7880.40,0.000%,1.32115,0.91,0.56,705.0
10 /,130,20115,10374,65024,8234.40,60.000%,1.20113,2.11,0.21,1796.7
11 /GTSGIAG3,130,16918,9264,33688,4638.28,0.000%,1.24145,0.85,0.53,705.0
12 /,130,20392,10894,66755,10653.70,67.692%,1.22070,2.29,0.17,1922.7
enviar factura,130,20392,10894,66755,10653.70,67.692%,1.21672,2.28,0.17,1922.7
15 /,130,14893,4693,65001,7557.39,24.615%,1.31038,1.53,0.43,1194.9
aceptar factura y enviar comprobantes,130,14893,4693,65001,7557.39,24.615%,1.31038,1.53,0.43,1194.9
18 /,130,14054,4841,23492,4285.24,39.231%,1.58612,2.23,0.42,1438.7
aqceptar pago,130,14054,4841,23492,4285.24,39.231%,1.58589,2.23,0.42,1438.7
19 /,130,11303,1981,23160,4305.06,20.000%,1.84384,2.01,0.64,1118.6
fondear,130,11303,1981,23160,4305.06,20.000%,1.84384,2.01,0.64,1118.6
20 /,130,9403,356,23357,5714.13,19.231%,2.41098,2.60,0.84,1105.9
aprobar fondeo,130,9403,356,23357,5714.13,19.231%,2.41098,2.60,0.84,1105.9
TOTAL,2959,24095,356,217818,30822.68,23.657%,10.54639,21.18,4.97,2056.0
